Summary Vignette
…
Number of species (total): 2122

Percent of world’s bird spp (out of 11,1145 spp): 19.04

Total number of migratory species: [Not sure how to calculate this]

Total number of interaction types: 25

Species list summary

Total number of species in the North American Avian Interaction Species List: 777

unique_intxns %>% group_by(interaction) %>% summarize(n=n()) %>% arrange(-n)

# A tibble: 25 × 2
   interaction                     n
   <chr>                       <int>
 1 predation                    5401
 2 competition                  3132
 3 co-occur                     2203
 4 brood parasitism             1523
 5 facilitation                 1450
 6 commensalism                 1095
 7 mobbing                       940
 8 communal nesting              920
 9 communal roosting             721
10 facilitation-mixed flocking   714
# ℹ 15 more rows
…
